…
Top 100 Shows

Because the rank and popularity columns are probably quite related, i’ll include the shows that are in either of the top 100 for these columns. Based on the data documentation, rank is determined by weighted user scores, while popularity is based on how many users have the anime listed in one of their favorite/saved/watch-later lists.

data_top <- 
  data_tidy %>% 
  filter(type == "TV", 
         rank <= 100 | popularity <= 100) %>% 
  select(name, title_english, studio, episodes, start_date, end_date, score, scored_by, rank, popularity) %>% 
  distinct() %>% 
  arrange(rank) %>% 
  print()

## # A tibble: 152 x 10
##    name  title_english studio episodes start_date end_date   score
##    <chr> <chr>         <chr>     <dbl> <date>     <date>     <dbl>
##  1 Full~ Fullmetal Al~ Bones        64 2009-04-05 NA          9.24
##  2 Stei~ Steins;Gate   White~       24 2011-04-06 2011-09-01  9.14
##  3 Gint~ Gintama Seas~ Banda~       51 2015-04-08 2016-03-03  9.13
##  4 Hunt~ Hunter x Hun~ Madho~      148 2011-10-02 2014-09-02  9.12
##  5 Gint~ Gintama Seas~ Sunri~       51 2011-04-04 2012-03-02  9.1 
##  6 Gint~ Gintama: Enc~ Sunri~       13 2012-10-04 2013-03-02  9.05
##  7 3-ga~ March Comes ~ Shaft        22 2017-10-14 2018-03-03  9.04
##  8 Clan~ Clannad ~Aft~ Kyoto~       24 2008-10-03 2009-03-02  9   
##  9 Gint~ Gintama       Sunri~      201 2006-04-04 2010-03-02  9   
## 10 Gint~ Gintama Seas~ Banda~       12 2017-01-09 2017-03-02  9   
## # ... with 142 more rows, and 3 more variables: scored_by <dbl>,
## #   rank <dbl>, popularity <dbl>
…
